{
  "count": 1777,
  "next": "https://ayming.api.fandit.es/api/v2/funds/?page=2&requestData=%7B%22is_open%22%3A+true%2C+%22search_by_text%22%3A+null%2C+%22max_budget%22%3A+null%2C+%22max_total_amount%22%3A+null%2C+%22min_total_amount%22%3A+null%2C+%22bdns%22%3A+null%2C+%22office%22%3A+%22%22%2C+%22start_date%22%3A+%222024-01-01%22%2C+%22end_date%22%3A+%222025-12-31%22%2C+%22final_period_start_date%22%3A+%222024-01-01%22%2C+%22final_period_end_date%22%3A+%222025-12-31%22%2C+%22search_tab%22%3A+null%2C+%22provinces%22%3A+%5B%5D%2C+%22applicants%22%3A+%5B%5D%2C+%22communities%22%3A+%5B%5D%2C+%22action_items%22%3A+%5B%5D%2C+%22origins%22%3A+%5B%5D%2C+%22activities%22%3A+%5B%5D%2C+%22region_types%22%3A+%5B%5D%2C+%22types%22%3A+%5B%5D%7D",
  "previous": null,
  "results": [
    {
      "slug": "programa-kit-digital-bonos-para-pymes-y-autonomos",
      "formatted_title": "Ayudas del Programa KIT DIGITAL - Segmento III",
      "status_text": "Apertura el 15/03/2022 y cierre el 31/10/2025",
      "entity": "ESTADO",
      "total_amount": 1260000000.0
    },
    {
      "slug": "ayudas-del-kit-consulting",
      "formatted_title": "Ayudas del Kit Consulting dirigidas a PYMEs.",
      "status_text": "Apertura el 18/06/2024 y cierre el 28/02/2025",
      "entity": "ESTADO",
      "total_amount": 270000000.0
    },
    {
      "slug": "ayudas-del-kit-digital-segmentos-iv-y-v",
      "formatted_title": "Ayudas del Kit Digital: Segmentos IV y V.",
      "status_text": "Apertura el 12/12/2024 y cierre el 30/06/2025",
      "entity": "ESTADO",
      "total_amount": 350000000.0
    },
    {
      "slug": "subvenciones-destinadas-a-la-promocion-de-proyectos-de-investigacion-industrial-y-desarrollo-experimental-en-andalucia",
      "formatted_title": "Subvenciones destinadas a la promoción de Proyectos de Investigación Industrial y Desarrollo Experimental en Andalucía",
      "status_text": "Apertura el 10/07/2024 y cierre el 30/12/2025",
      "entity": "ANDALUCÍA",
      "total_amount": 17000000.0
    },
    {
      "slug": "ayudas-adelante-inversion-para-el-fomento-de-la-inversion-y-la-mejora-de-la-productividad-empresarial-en-castilla-la-mancha-ano-2024",
      "formatted_title": "Ayudas Adelante Inversión para el fomento de la inversión y la mejora de la productividad empresarial en Castilla-La Mancha, año 2024.",
      "status_text": "Apertura el 25/09/2024 y cierre el 31/03/2025",
      "entity": "CASTILLA-LA MANCHA",
      "total_amount": 40000000.0
    },
    {
      "slug": "subvenciones-a-empresas-para-proyectos-de-innovacion-de-las-pymes-programa-innova-cv-2025",
      "formatted_title": "Subvenciones a empresas para proyectos de innovación de las PYMEs - Programa INNOVA-CV 2025",
      "status_text": "Apertura el 11/02/2025 y cierre el 25/03/2025",
      "entity": "COMUNITAT VALENCIANA",
      "total_amount": 12500000.0
    },
    {
      "slug": "ayudas-destinadas-a-financiar-proyectos-de-eficiencia-energetica-y-economia-circular-ubicados-en-el-ambito-territorial-de-canarias",
      "formatted_title": "Ayudas destinadas a financiar proyectos de eficiencia energética y economía circular ubicados en el ámbito territorial de Canarias.",
      "status_text": "Apertura el 19/12/2024 y cierre el 30/04/2025",
      "entity": "CANARIAS",
      "total_amount": 11213037.85
    },
    {
      "slug": "subvenciones-a-empresas-de-la-comunidad-valenciana-para-proyectos-de-id-en-el-ejercicio-2025",
      "formatted_title": "Subvenciones a empresas de la Comunidad Valenciana para proyectos de I+D en el ejercicio 2025.",
      "status_text": "Apertura el 11/02/2025 y cierre el 25/03/2025",
      "entity": "COMUNITAT VALENCIANA",
      "total_amount": 7000000.0
    },
    {
      "slug": "ayudas-para-financiar-en-2024-proyectos-de-eficiencia-energetica-y-economia-circular-de-empresas-turisticas",
      "formatted_title": "Ayudas para financiar en 2024 proyectos de eficiencia energética y economía circular de empresas turísticas",
      "status_text": "Apertura el 21/10/2024 y cierre el 15/05/2025",
      "entity": "COMUNITAT VALENCIANA",
      "total_amount": 21037538.83
    },
    {
      "slug": "subvenciones-para-la-insercion-laboral-y-el-fomento-de-la-contratacion-en-el-ambito-de-andalucia-programa-emplea-t-lineas-1-2-4-y-7",
      "formatted_title": "Subvenciones para la inserción laboral y el fomento de la contratación en el ámbito de Andalucía - Programa Emplea-T (Líneas 1, 2, 4 y 7)",
      "status_text": "Apertura el 26/10/2024 y cierre el 30/04/2025",
      "entity": "ANDALUCÍA",
      "total_amount": 203092319.0
    },
    {
      "slug": "ayudas-para-la-investigacion-y-el-desarrollo-en-las-empresas-vascas-hazitek-2025",
      "formatted_title": "Ayudas para la investigación y el desarrollo en las empresas vascas - Hazitek 2025",
      "status_text": "Apertura el 02/01/2025 y cierre el 17/03/2025",
      "entity": "PAÍS VASCO",
      "total_amount": 93000000.0
    },
    {
      "slug": "ayudas-a-las-personas-trabajadoras-autonomas-de-galicia-para-el-ano-2025",
      "formatted_title": "Ayudas a las personas trabajadoras autónomas de Galicia para el año 2025.",
      "status_text": "Apertura el 24/01/2025 y cierre el 30/09/2025",
      "entity": "GALICIA",
      "total_amount": 40706500.0
    },
    {
      "slug": "subvenciones-destinadas-a-fomentar-el-autoempleo-en-tierra-de-campos-ano-202425",
      "formatted_title": "Subvenciones destinadas a fomentar el autoempleo en Tierra de Campos, año 2024/25.",
      "status_text": "Apertura el 27/11/2024 y cierre el 17/09/2025",
      "entity": "CASTILLA Y LEÓN",
      "total_amount": 1000000.0
    },
    {
      "slug": "ayudas-a-las-empresas-para-incentivar-la-contratacion-en-la-empresa-ordinaria-ano-2025",
      "formatted_title": "Ayudas a las empresas para incentivar la contratación en la empresa ordinaria, año 2025.",
      "status_text": "Apertura el 31/01/2025 y cierre el 30/09/2025",
      "entity": "GALICIA",
      "total_amount": 19700000.0
    },
    {
      "slug": "ayudas-para-la-atraccion-de-empresas-a-galicia-ano-2025",
      "formatted_title": "Ayudas para la atracción de empresas a Galicia, año 2025.",
      "status_text": "Apertura el 21/01/2025 y cierre el 30/09/2025",
      "entity": "GALICIA",
      "total_amount": 12000000.0
    },
    {
      "slug": "ayudas-a-la-inversion-en-industrias-agroalimentarias-ano-2025",
      "formatted_title": "Ayudas a la inversión en industrias agroalimentarias, año 2025.",
      "status_text": "Apertura el 02/01/2025 y cierre el 14/03/2025",
      "entity": "COMUNIDAD FORAL DE NAVARRA",
      "total_amount": 11000000.0
    },
    {
      "slug": "ayudas-para-fomentar-la-modernizacion-de-la-industria-agroalimentaria-y-la-transicion-justa-cyl-ge",
      "formatted_title": "Ayudas para fomentar la modernización de la industria agroalimentaria y la transición justa en Castilla y León. (Línea Grandes Empresas)",
      "status_text": "Apertura el 13/11/2024 y cierre el 30/04/2025",
      "entity": "CASTILLA Y LEÓN",
      "total_amount": 8992896.5
    },
    {
      "slug": "ayudas-para-fomentar-la-modernizacion-de-la-industria-agroalimentaria-y-la-transicion-justa-cyl",
      "formatted_title": "Ayudas para fomentar la modernización de la industria agroalimentaria y la transición justa en Castilla y León. (Línea PYMEs)",
      "status_text": "Apertura el 13/11/2024 y cierre el 30/04/2025",
      "entity": "CASTILLA Y LEÓN",
      "total_amount": 8992896.5
    },
    {
      "slug": "ayudas-destinadas-a-financiar-proyectos-ligados-a-destinos-turisticos-de-excelencia-en-los-territorios-afectados-por-el-fondo-de-transicion-justa-en-castilla-y-leon",
      "formatted_title": "Ayudas destinadas a financiar proyectos ligados a destinos turísticos de excelencia en los territorios afectados por el Fondo de Transición Justa en Castilla y León.",
      "status_text": "Apertura el 30/01/2025 y cierre el 29/04/2025",
      "entity": "CASTILLA Y LEÓN",
      "total_amount": 5538209.0
    },
    {
      "slug": "ayudas-de-inteligencia-artificial-aplicada-y-estrategia-del-dato-2024",
      "formatted_title": "Ayudas de Inteligencia Artificial Aplicada y Estrategia del Dato 2024/2025",
      "status_text": "Apertura el 06/09/2024 y cierre el 30/06/2025",
      "entity": "PAÍS VASCO",
      "total_amount": 5000000.0
    }
  ]
}